<svg width="141" height="281" viewBox="0 0 141 281" fill="none" xmlns="http://www.w3.org/2000/svg">
<g clip-path="url(#clip0)">
<path d="M31.9334 230.091C31.9334 230.091 31.6986 233.148 30.642 236.792C29.5853 240.672 30.7594 242.554 32.6378 243.259C34.751 243.964 36.6295 244.082 39.6819 245.728C42.3822 247.139 44.0258 252.782 52.7136 254.193C61.4013 255.722 59.7577 248.197 57.1749 245.728C54.3572 243.024 45.9042 232.56 45.9042 232.56L31.9334 230.091Z" fill="#1B2224"/>
<path d="M31.816 228.915C31.816 228.915 31.5812 231.972 30.5246 235.617C29.4679 239.497 30.9942 241.025 32.8726 241.613C34.9859 242.318 36.6295 242.554 39.6819 244.317C43.9084 246.669 43.9084 251.019 52.5962 252.547C61.2839 254.076 59.6403 247.021 57.0575 244.552C54.2398 241.848 45.7869 231.384 45.7869 231.384L31.816 228.915Z" fill="#3A3E3F"/>
<path d="M16.6711 238.438C16.6711 238.438 16.4363 241.495 15.3797 245.14C14.3231 249.02 15.4971 250.901 17.3755 251.607C19.4888 252.312 21.3672 252.43 24.4197 254.076C27.1199 255.487 28.7635 261.13 37.4513 262.541C46.1391 264.069 44.4954 256.545 41.9126 254.076C39.0949 251.372 30.642 240.908 30.642 240.908L16.6711 238.438Z" fill="#1B2224"/>
<path d="M16.5537 237.263C16.5537 237.263 16.3189 240.32 15.2623 243.964C14.2056 247.844 15.7319 249.373 17.6103 249.961C19.7236 250.666 21.3672 250.901 24.4196 252.665C28.6461 255.016 28.6461 259.366 37.3339 260.895C46.0216 262.423 44.378 255.369 41.7952 252.9C38.9775 250.196 30.5246 239.732 30.5246 239.732L16.5537 237.263Z" fill="#3A3E3F"/>
<path d="M53.6528 118.279C53.6528 118.279 54.9442 131.447 52.831 131.682C50.4829 131.917 49.4263 131.094 49.4263 131.094L49.6611 121.1L53.6528 118.279Z" fill="#FFCEBB"/>
<path d="M42.3822 36.2125C48.7219 36.3301 53.0658 44.9129 53.5354 54.5539C54.005 64.0774 53.7702 83.7121 53.7702 91.8247C53.7702 99.9372 57.527 126.274 50.0133 121.806C45.9042 119.337 45.4346 93.0004 45.4346 93.0004L44.7302 55.377L42.3822 36.2125Z" fill="#697284"/>
<path d="M48.9567 170.951C48.9567 170.951 47.4305 205.753 48.0175 217.158C48.3697 223.271 47.7827 227.974 46.7261 232.325C46.4913 233.383 44.4954 233.5 43.5562 233.5C39.5645 233.618 34.5162 235.264 31.4638 233.03C30.2898 232.207 30.7594 229.033 30.8768 226.681C31.1116 216.217 31.1116 209.28 29.9376 201.403C28.8809 193.643 29.9376 180.005 32.1682 172.833C34.3988 165.896 48.9567 170.951 48.9567 170.951Z" fill="#1A191D"/>
<path d="M50.2481 107.932C50.2481 107.932 53.3006 117.338 53.418 141.205C53.418 147.672 52.4788 158.136 51.1873 166.484C49.8959 174.714 48.2523 183.062 44.0258 183.179C39.7993 183.414 31.5812 189.646 31.5812 168.835C31.5812 148.025 32.8726 111.93 32.8726 111.93L50.2481 107.932Z" fill="#1A191D"/>
<path d="M14.7927 170.716C14.7927 180.71 10.5662 186.824 11.2706 202.226C11.975 217.628 16.2015 231.737 15.7319 237.498C15.2623 243.259 31.229 242.671 31.4638 239.732C31.816 234.559 33.1074 214.101 32.5204 201.285C31.816 188.587 33.4596 176.83 33.1074 168.718C32.7552 160.723 14.7927 170.716 14.7927 170.716Z" fill="#38373E"/>
<path d="M7.86593 109.578C7.86593 109.578 3.63945 118.984 4.69607 130.389C5.75269 141.793 14.5579 168.13 14.5579 175.89C14.5579 183.649 33.1074 190.469 33.1074 169.893C33.1074 155.785 34.6336 158.018 34.2814 136.15C34.164 130.624 41.0907 132.387 38.7427 110.636C37.9209 102.054 7.86593 109.578 7.86593 109.578Z" fill="#38373E"/>
<path d="M0.704414 54.2013C4.93089 44.7954 34.6336 33.1557 42.3822 35.9774C50.1307 38.7992 52.244 57.9636 50.3655 78.5389C48.8393 96.2925 51.1873 100.643 51.0699 109.931C50.9525 117.103 8.33556 117.103 6.80933 112.4C5.2831 107.697 7.63114 86.5339 5.04829 76.0699C1.76103 62.7841 -1.29142 58.7866 0.704414 54.2013Z" fill="#FFD100"/>
<path d="M20.7802 25.0431C20.7802 25.0431 19.3713 39.1519 18.7843 43.8548C18.6669 48.205 37.2165 51.8498 37.9209 48.6753C38.5079 47.0293 37.3339 41.3858 37.5687 36.6828C23.5978 33.7435 20.7802 25.0431 20.7802 25.0431Z" fill="#D1A79F"/>
<path d="M20.3106 30.2163C20.3106 30.2163 19.3714 26.4539 18.1973 24.3376C15.6145 19.5171 15.6145 9.75853 21.7194 5.99618C27.8243 2.23384 31.9334 5.64346 31.9334 5.64346L29.3505 11.7573L20.3106 30.2163Z" fill="#2D2D2D"/>
<path d="M29.4679 5.52588C30.055 5.52588 40.6211 6.23132 42.617 12.3451C44.4954 18.4589 42.4996 20.5752 43.6736 23.2794C44.378 25.043 46.6087 31.1568 45.4346 31.7447C44.4954 32.215 43.3214 31.9799 43.4388 33.038C43.4388 33.861 43.4388 37.9761 42.3822 39.2694C40.9734 41.1506 36.7469 40.6803 30.9942 38.3288C25.2415 35.8598 21.015 34.4489 21.015 31.392C21.015 27.7472 22.189 26.6891 21.602 25.5133C21.015 24.3376 17.8451 20.6928 19.6062 19.0468C21.3672 17.4008 23.4804 20.6928 23.8326 20.3401C24.3022 20.105 21.2498 5.8786 29.4679 5.52588Z" fill="#EFC0B1"/>
<path d="M31.1116 35.3895C26.7677 32.6854 28.1765 29.3933 28.8809 21.6335L23.8326 19.0469C23.95 19.8699 23.95 20.4577 23.8326 20.4577C23.4804 20.8105 21.3672 17.5184 19.6062 19.1644C17.8451 20.8105 19.4888 24.3377 20.7802 25.5134C21.7194 26.3364 20.7802 27.6297 20.8976 31.3921C20.8976 34.449 25.1241 35.8598 30.8768 38.3289C34.6336 39.8573 37.5687 40.6803 39.6819 40.4452C37.8035 39.387 34.0466 37.3883 31.1116 35.3895Z" fill="#E2B6AA"/>
<path d="M34.6336 9.75854C34.6336 9.75854 26.5329 11.4046 26.2981 15.0493C26.1807 18.1062 25.1241 23.7498 25.1241 23.7498L23.2456 23.2795L23.363 20.2226C23.363 20.2226 21.1324 10.9343 23.2456 9.52339C25.3589 8.11252 30.2898 6.46649 32.99 8.23009C35.6903 9.87611 34.6336 9.75854 34.6336 9.75854Z" fill="#2D2D2D"/>
<path d="M25.9459 15.6372C25.9459 15.6372 25.5937 20.5753 25.4763 21.3983C25.3589 22.2213 29.3506 25.1607 33.8118 23.1619C38.2731 21.1632 39.9167 20.8104 42.9692 20.8104C46.0217 20.8104 45.7869 15.5197 45.7869 15.5197L25.9459 15.6372Z" fill="#2D2D2D"/>
<path d="M44.6128 12.3452C44.6128 12.3452 50.0133 14.5791 49.3089 18.459C48.9567 20.9281 44.0258 22.6917 32.99 19.6348C21.8368 16.5779 15.1449 14.8143 14.0882 11.4046C13.149 7.99501 17.1407 5.64355 20.0758 6.34899C23.1282 7.05443 44.6128 12.3452 44.6128 12.3452Z" fill="#FFD100"/>
<path d="M15.9667 9.64092C15.4971 12.5802 44.4954 20.1049 45.9043 16.8129C46.6087 10.3464 41.6778 2.93924 34.3988 1.05807C25.2415 -1.29339 16.7885 4.4677 15.9667 9.64092Z" fill="#FFB200"/>
<path d="M37.9209 9.2883C41.2081 11.6398 43.9084 14.4615 45.7868 16.9306L45.9042 16.813C46.6086 10.3465 42.1474 1.64604 32.6378 0.235166C26.0633 -0.822993 21.8368 1.76362 18.5495 5.05567C23.363 4.82052 32.0508 5.05567 37.9209 9.2883Z" fill="#FFD100"/>
<path d="M51.4221 64.6653C52.1266 63.6071 55.0616 59.3745 54.9442 56.2C54.8268 53.0255 56.353 53.2607 56.7052 54.3188C57.0575 55.377 56.5878 57.6109 57.2923 57.9636C57.9967 58.3163 63.3972 51.9674 64.806 52.6728C66.2148 53.3782 61.1665 57.3757 61.0491 57.846C60.9317 58.3163 61.6361 57.6109 62.2231 58.3163C62.9276 59.1393 62.3406 59.4921 62.6928 59.8448C62.8102 60.0799 63.1624 59.8448 63.5146 60.3151C63.9842 60.9029 63.632 61.2557 63.7494 61.4908C63.8668 61.7259 63.9842 61.7259 64.219 62.0787C64.3364 62.3138 64.9234 63.6071 61.2839 65.4883C57.6445 67.3695 56.1182 68.3101 55.5312 69.0155C54.8268 69.7209 51.4221 64.6653 51.4221 64.6653Z" fill="#EFC0B1"/>
<path d="M3.75687 49.9686C-4.10908 54.9067 0.939215 69.2506 13.8535 86.8866C24.3022 101.348 27.7069 103.347 35.1032 97.5858C42.7344 91.472 56.94 68.4276 56.94 68.4276L51.7743 62.5489L29.4679 82.8891C29.4679 82.8891 21.2498 65.018 16.5537 58.0812C13.149 53.1431 8.45295 47.0293 3.75687 49.9686Z" fill="#5F6977"/>
<path d="M48.4871 112.635C45.552 111.93 37.0991 110.049 26.6503 108.167C17.0233 106.404 9.50957 93.2356 6.22231 86.5339C6.57452 96.8804 5.6353 108.99 6.80932 112.4C8.10075 116.398 39.2123 116.985 48.4871 112.635Z" fill="#FFB200"/>
<path opacity="0.2" d="M61.5187 234.441C75.607 242.553 75.7244 255.839 61.6361 263.952C47.6653 272.064 24.8892 272.064 10.801 263.952C-3.28728 255.839 -3.40468 242.553 10.6836 234.441C24.6544 226.328 47.4305 226.328 61.5187 234.441Z" fill="#9193A3"/>
<path d="M99.9092 0.705438L100.966 1.2933C100.261 0.940585 99.3222 0.940585 98.2656 1.52845L97.209 0.940585C98.2656 0.352718 99.2048 0.352718 99.9092 0.705438Z" fill="#252529"/>
<path d="M98.383 1.64599L97.3264 1.05813C98.0308 0.705408 98.6178 0.470262 99.2048 0.587835L100.144 1.1757C99.6744 1.05813 98.97 1.29327 98.383 1.64599Z" fill="#252529"/>
<path d="M100.144 1.17576L99.0874 0.587891C99.4396 0.587891 99.6744 0.705464 99.9092 0.823037L100.966 1.4109C100.731 1.29333 100.496 1.17576 100.144 1.17576Z" fill="#252529"/>
<path d="M26.5329 104.523L25.4763 103.935C24.7719 103.582 24.4196 102.641 24.4196 101.466L25.4763 102.054C25.4763 103.347 25.9459 104.17 26.5329 104.523Z" fill="#252529"/>
<path d="M26.5329 104.523L25.4763 103.935C24.7719 103.582 24.4196 102.641 24.4196 101.466L25.4763 102.054C25.4763 103.347 25.9459 104.17 26.5329 104.523Z" fill="#252529"/>
<path d="M25.4763 102.171L24.4196 101.466L24.1848 47.6172L25.3589 48.2051L25.4763 102.171Z" fill="#252529"/>
<path d="M29.1157 41.7384L27.9417 41.033L97.209 1.05811L98.383 1.64597L29.1157 41.7384Z" fill="#252529"/>
<path d="M25.3589 48.205L24.3022 47.6172C24.3022 45.1481 25.9459 42.3264 28.0591 41.0331L29.1157 41.6209C27.0025 42.9143 25.3589 45.8536 25.3589 48.205Z" fill="#252529"/>
<path d="M25.3589 48.2051L24.3022 47.6172C24.3022 46.7942 24.537 45.9712 24.7719 45.1482L25.8285 45.7361C25.4763 46.5591 25.3589 47.4997 25.3589 48.2051Z" fill="#252529"/>
<path d="M25.8285 45.736L24.6544 45.1481C24.8893 44.5602 25.1241 43.9724 25.4763 43.5021L26.5329 44.0899C26.2981 44.6778 26.0633 45.2657 25.8285 45.736Z" fill="#252529"/>
<path d="M26.6503 44.2076L25.4763 43.5021C26.1807 42.444 27.0025 41.6209 27.9417 41.0331L28.9983 41.6209C28.1765 42.2088 27.3547 43.1494 26.6503 44.2076Z" fill="#252529"/>
<path d="M98.383 1.64606C100.496 0.470328 102.14 1.41091 102.14 3.76238L102.257 57.6109C102.257 59.9624 100.614 62.9017 98.5004 64.195L29.2331 104.17C27.1199 105.346 25.4763 104.405 25.4763 102.054L25.3589 48.2051C25.3589 45.736 27.0025 42.9143 29.1157 41.621L98.383 1.64606Z" fill="white"/>
<path d="M54.592 78.6565L82.1815 62.549C82.7685 62.9017 98.0308 72.6603 112.941 102.054C121.629 119.102 128.321 139.207 133.017 162.016C138.887 190.351 141.47 222.801 140.883 258.661L113.293 274.769C113.88 239.026 111.297 206.459 105.427 178.123C100.731 155.314 94.0391 135.209 85.3514 118.161C70.4413 88.7678 55.2964 79.0092 54.592 78.6565Z" fill="#38373E"/>
<path d="M54.592 78.6565L82.1815 62.549C82.4163 62.6665 83.7077 63.4895 85.821 65.3707L58.3489 81.3607C56.1182 79.5971 54.8268 78.7741 54.592 78.6565Z" fill="#38373E"/>
<path d="M58.3489 81.3607L85.9384 65.2532C88.0516 67.0168 90.8693 69.721 94.2739 73.4833L66.6844 89.7084C63.2798 85.8285 60.4621 83.2419 58.3489 81.3607Z" fill="#38373E"/>
<path d="M66.6844 89.7084L94.274 73.6008C99.6745 79.8322 106.366 89.0029 112.941 101.936C114.467 104.875 115.876 107.932 117.285 110.989L89.6953 127.097C88.2864 123.922 86.8776 120.983 85.3514 118.044C78.7769 105.11 72.0849 95.9397 66.6844 89.7084Z" fill="#38373E"/>
<path d="M89.6953 127.214L117.285 111.107C120.689 118.867 123.742 127.097 126.442 135.915L98.8526 152.022C96.1524 143.204 93.0999 134.856 89.6953 127.214Z" fill="#38373E"/>
<path d="M98.8526 152.022L126.442 135.915C128.908 144.145 131.138 152.845 133.017 161.898C134.073 166.954 135.012 172.245 135.834 177.535L108.245 193.643C107.423 188.352 106.484 183.061 105.427 178.006C103.549 168.953 101.318 160.252 98.8526 152.022Z" fill="#38373E"/>
<path d="M108.245 193.643L135.834 177.536C139.356 199.992 141.117 224.682 141 251.254L113.411 267.361C113.528 240.79 111.767 216.1 108.245 193.643Z" fill="#38373E"/>
<path d="M113.41 267.361L141 251.254C141 253.605 141 256.074 140.883 258.543L113.293 274.651C113.293 272.182 113.41 269.83 113.41 267.361Z" fill="#38373E"/>
<path d="M54.592 78.6565C55.179 79.0092 70.4413 88.7678 85.3514 118.161C94.0391 135.209 100.731 155.314 105.427 178.123C111.297 206.459 113.88 238.909 113.293 274.769L110.475 273.123C111.884 192.82 96.3872 144.85 83.1207 118.749C69.0325 91.0017 54.592 81.7134 54.4746 81.7134L54.592 78.6565Z" fill="#252529"/>
<g opacity="0.2">
<g opacity="0.2">
<path opacity="0.2" d="M110.475 279.119L113.41 281L140.765 264.422L140.883 258.544L138.182 257.015L110.475 273.005V279.119Z" fill="#9394A7"/>
</g>
</g>
</g>
<defs>
<clipPath id="clip0">
<rect width="141" height="281" fill="white"/>
</clipPath>
</defs>
</svg>
