<svg width="244" height="244" viewBox="0 0 244 244" fill="none" xmlns="http://www.w3.org/2000/svg">
<g filter="url(#filter0_d)">
<circle cx="122" cy="118" r="102" fill="white"/>
</g>
<g filter="url(#filter1_d)">
<circle cx="122" cy="118" r="83" stroke="#FC6D6D" stroke-width="4"/>
</g>
<path d="M160.534 74H94.5335C93.7235 74 93.0668 74.6567 93.0668 75.4667V97.4668H96.0001V76.9334H159.067V157.601C159.081 158.372 158.486 159.018 157.716 159.067C157.59 159.067 157.464 159.057 157.338 159.054C157.078 159.047 156.819 159.041 156.564 159.014C156.542 159.014 156.521 159.014 156.499 159.006C151.709 158.482 147.925 154.702 147.397 149.912C147.397 149.892 147.39 149.87 147.387 149.849C147.351 149.501 147.333 149.151 147.334 148.8V145.867C147.334 145.057 146.677 144.4 145.867 144.4H96.0001V118H93.0668V144.4H81.3334C80.5234 144.4 79.8667 145.057 79.8667 145.867V148.8C79.8748 156.087 85.78 161.993 93.0668 162.001H157.747C160.127 161.938 162.019 159.981 162.001 157.601V75.4667C162.001 74.6567 161.344 74 160.534 74ZM93.0668 159.067C87.3994 159.061 82.8065 154.468 82.8001 148.8V147.334H144.4V148.8C144.402 149.284 144.43 149.767 144.484 150.248C144.497 150.376 144.522 150.499 144.54 150.625C144.588 150.98 144.647 151.333 144.725 151.681C144.751 151.803 144.785 151.923 144.816 152.045C144.905 152.398 145.006 152.746 145.124 153.089C145.157 153.187 145.192 153.284 145.229 153.382C145.363 153.746 145.514 154.101 145.679 154.452C145.715 154.523 145.747 154.598 145.782 154.664C145.966 155.036 146.168 155.397 146.388 155.748C146.417 155.795 146.444 155.843 146.473 155.895C146.712 156.269 146.97 156.632 147.246 156.98L147.293 157.043C147.613 157.445 147.956 157.829 148.319 158.192C148.635 158.505 148.963 158.798 149.302 159.072L93.0668 159.067Z" fill="#FC6D6D"/>
<path d="M122.4 115.067C122.789 115.067 123.162 114.912 123.437 114.637L129.304 108.77C129.877 108.198 129.877 107.269 129.304 106.697L123.437 100.83C123.162 100.555 122.789 100.4 122.4 100.4H81.3334C77.2833 100.4 74 103.683 74 107.734C74 111.784 77.2833 115.067 81.3334 115.067H122.4ZM122.022 103.562L126.193 107.734L122.022 111.905L120.979 107.734L122.022 103.562ZM85.7334 103.333H119.056L118.323 106.267H88.6668V109.2H118.323L119.056 112.134H85.7334V103.333ZM76.9334 107.734C76.9334 105.303 78.9033 103.333 81.3334 103.333H82.8001V112.134H81.3334C78.9033 112.134 76.9334 110.164 76.9334 107.734Z" fill="#FC6D6D"/>
<path d="M107.734 137.067H151.734C152.544 137.067 153.2 136.41 153.2 135.6V91.6001C153.2 90.7901 152.544 90.1336 151.733 90.1338C151.345 90.1338 150.972 90.2883 150.697 90.5632L106.697 134.563C106.124 135.136 106.124 136.065 106.697 136.638C106.972 136.913 107.345 137.067 107.734 137.067ZM150.267 95.1407V98.9335H147.334V101.867H150.267V104.8H147.334V107.734H150.267V110.667H147.334V113.6H150.267V116.534H147.334V119.467H150.267V122.4H147.334V125.334H150.267V128.267H147.334V131.2H150.267V134.134H147.334V131.2H144.4V134.134H141.467V131.2H138.534V134.134H135.6V131.2H132.667V134.134H129.734V131.2H126.8V134.134H123.867V131.2H120.934V134.134H118V131.2H115.067V134.134H111.274L150.267 95.1407Z" fill="#FC6D6D"/>
<path d="M128.978 128.267H142.934C143.744 128.267 144.4 127.61 144.4 126.8V112.845C144.4 112.035 143.744 111.378 142.933 111.379C142.545 111.379 142.172 111.533 141.897 111.808L127.941 125.763C127.369 126.336 127.369 127.265 127.942 127.838C128.217 128.113 128.589 128.267 128.978 128.267ZM141.467 116.387V125.334H132.52L141.467 116.387Z" fill="#FC6D6D"/>
<path d="M141.467 82.8H112.134V85.7334H141.467V82.8Z" fill="#FC6D6D"/>
<path d="M145.867 88.6667H107.734V91.6001H145.867V88.6667Z" fill="#FC6D6D"/>
<path d="M107.734 119.467H98.9335V122.4H107.734V119.467Z" fill="#FC6D6D"/>
<path d="M104.8 125.334H98.9335V128.267H104.8V125.334Z" fill="#FC6D6D"/>
<defs>
<filter id="filter0_d" x="0" y="0" width="244" height="244" filterUnits="userSpaceOnUse" color-interpolation-filters="sRGB">
<feFlood flood-opacity="0" result="BackgroundImageFix"/>
<feColorMatrix in="SourceAlpha" type="matrix" values="0 0 0 0 0 0 0 0 0 0 0 0 0 0 0 0 0 0 127 0"/>
<feOffset dy="4"/>
<feGaussianBlur stdDeviation="10"/>
<feColorMatrix type="matrix" values="0 0 0 0 0 0 0 0 0 0 0 0 0 0 0 0 0 0 0.04 0"/>
<feBlend mode="normal" in2="BackgroundImageFix" result="effect1_dropShadow"/>
<feBlend mode="normal" in="SourceGraphic" in2="effect1_dropShadow" result="shape"/>
</filter>
<filter id="filter1_d" x="17" y="17" width="210" height="210" filterUnits="userSpaceOnUse" color-interpolation-filters="sRGB">
<feFlood flood-opacity="0" result="BackgroundImageFix"/>
<feColorMatrix in="SourceAlpha" type="matrix" values="0 0 0 0 0 0 0 0 0 0 0 0 0 0 0 0 0 0 127 0"/>
<feOffset dy="4"/>
<feGaussianBlur stdDeviation="10"/>
<feColorMatrix type="matrix" values="0 0 0 0 0 0 0 0 0 0 0 0 0 0 0 0 0 0 0.04 0"/>
<feBlend mode="normal" in2="BackgroundImageFix" result="effect1_dropShadow"/>
<feBlend mode="normal" in="SourceGraphic" in2="effect1_dropShadow" result="shape"/>
</filter>
</defs>
</svg>
