<svg width="210" height="299" viewBox="0 0 210 299" fill="none" xmlns="http://www.w3.org/2000/svg">
<g clip-path="url(#clip0)">
<g opacity="0.2">
<path opacity="0.2" d="M0 260.203V130.67L67.1394 169.467V299L0 260.203Z" fill="#9193A3"/>
<path opacity="0.2" d="M67.1394 299V169.467L179.207 104.764V234.297L67.1394 299Z" fill="#9193A3"/>
</g>
<path d="M0 116.643V64.7032L22.3377 77.7197L67.1394 129.533V155.44L0 116.643Z" fill="#FC6D6D"/>
<path d="M0 64.7033L111.941 0L134.405 12.8901L22.3377 77.7198L0 64.7033Z" fill="#30ACC5"/>
<path d="M22.3377 77.7198L134.405 12.8901L179.207 64.7033L67.1394 129.533L22.3377 77.7198Z" fill="#30ACC5"/>
<path d="M67.1394 129.533V155.44L179.207 90.6098V64.7032L67.1394 129.533Z" fill="#F94848"/>
<path d="M78.2452 144.066L77.7404 143.687L77.6142 131.429L78.2452 131.681V144.066Z" fill="#AAAAAA"/>
<path d="M78.2452 131.681L77.6142 131.429L94.6514 121.571L95.1563 121.951L78.2452 131.681Z" fill="#EDEDED"/>
<path d="M95.1563 121.951V134.209L78.2452 144.066V131.681L95.1563 121.951Z" fill="#C2C3D0"/>
<path d="M31.6767 80.7528L135.162 20.8517L171.13 62.3022L67.3918 122.33L31.6767 80.7528Z" fill="white"/>
<path d="M110.048 60.0276L109.165 59.6485L113.203 46.7584L119.892 37.0276L120.649 37.5331L113.96 47.1375L110.048 60.0276Z" fill="#F94848"/>
<path d="M78.2452 76.3297L63.9844 73.9286L64.1106 73.044L78.119 75.3187L91.875 67.2308L92.3798 68.1155L78.2452 76.3297Z" fill="#F94848"/>
<path d="M86.3221 101.731L85.6911 101.099L94.6514 92.0001L101.971 77.088L102.728 77.4671L95.2825 92.632L86.3221 101.731Z" fill="#F94848"/>
<path d="M129.736 76.2033L119.892 72.6649L120.144 71.7803L129.609 75.1923L145.511 66.3462L146.016 67.1044L129.736 76.2033Z" fill="#F94848"/>
<path d="M127.338 30.2034L115.096 37.2803L121.154 44.3572L133.395 37.1539L127.338 30.2034Z" fill="#252529"/>
<path d="M150.685 57.5001L138.444 64.577L144.501 71.654L156.743 64.577L150.685 57.5001Z" fill="#252529"/>
<path d="M85.3125 95.6649L73.0709 102.742L79.1286 109.819L91.3702 102.742L85.3125 95.6649Z" fill="#252529"/>
<path d="M63.3534 67.2308L51.1118 74.3078L57.1695 81.3847L69.4111 74.3078L63.3534 67.2308Z" fill="#252529"/>
<path d="M106.01 53.5825L123.804 74.1814L105.126 84.7968L87.4579 64.3243L106.01 53.5825Z" fill="#252529"/>
<path d="M102.476 56.7418L93.2632 62.0495L97.8065 67.3572L107.019 62.0495L102.476 56.7418Z" fill="white"/>
<path d="M108.155 63.6924L98.9423 69.0001L103.486 74.3078L112.698 68.8737L108.155 63.6924Z" fill="#FFD100"/>
<path d="M113.708 70.2638L104.495 75.5715L109.038 80.8792L118.251 75.5715L113.708 70.2638Z" fill="white"/>
<path d="M0 246.049V116.643L67.1394 155.44V284.973L0 246.049Z" fill="#252529"/>
<path d="M67.1394 284.973V155.44L179.207 90.6099V220.143L67.1394 284.973Z" fill="#1A191D"/>
<path d="M58.6839 250.093L59.1887 249.841V269.049L58.5577 269.429L58.6839 250.093Z" fill="#AAAAAA"/>
<path d="M34.7055 236.319L35.3365 235.939L59.1887 249.841L58.6839 250.093L34.7055 236.319Z" fill="#EDEDED"/>
<path d="M58.6839 250.093L58.5577 269.428L34.7055 255.654V236.319L58.6839 250.093Z" fill="#C2C3D0"/>
<path d="M35.3365 238.214L35.8413 237.962C36.0938 237.835 36.3462 237.835 36.7248 238.088L36.22 238.341C35.8413 238.214 35.5889 238.088 35.3365 238.214Z" fill="white"/>
<path d="M35.3365 238.214L35.8413 237.961C35.9675 237.961 36.0938 237.835 36.22 237.835L35.7151 238.088C35.5889 238.214 35.4627 238.214 35.3365 238.214Z" fill="white"/>
<path d="M35.7151 238.214L36.22 237.961C36.3462 237.961 36.3462 237.961 36.4724 237.961L35.9676 238.214C35.8413 238.214 35.8413 238.214 35.7151 238.214Z" fill="white"/>
<path d="M35.9675 238.214L36.4724 237.961C36.5986 237.961 36.5986 237.961 36.7248 238.088L36.22 238.341C36.0938 238.341 35.9675 238.214 35.9675 238.214Z" fill="white"/>
<path d="M37.482 240.868L36.9772 241.121C37.2296 240.994 37.3558 240.742 37.3558 240.362C37.3558 239.604 36.851 238.72 36.22 238.34L36.7248 238.088C37.3558 238.467 37.8606 239.351 37.8606 240.11C37.7344 240.489 37.6082 240.742 37.482 240.868Z" fill="white"/>
<path d="M36.22 238.34L36.5986 238.088L36.22 238.34Z" fill="white"/>
<path d="M36.22 238.34L36.7248 238.088C36.851 238.088 36.851 238.214 36.9772 238.214L36.4724 238.467C36.3462 238.467 36.22 238.467 36.22 238.34Z" fill="white"/>
<path d="M36.4724 238.593L36.9772 238.34C37.1034 238.467 37.1034 238.467 37.2296 238.593L36.7248 238.846C36.5986 238.719 36.4724 238.593 36.4724 238.593Z" fill="white"/>
<path d="M36.7248 238.72L37.2296 238.467C37.3558 238.72 37.6082 238.972 37.7344 239.225L37.2296 239.478C36.9772 239.225 36.851 238.972 36.7248 238.72Z" fill="white"/>
<path d="M37.1034 239.478L37.6082 239.225C37.6082 239.351 37.7344 239.478 37.7344 239.478L37.2296 239.731C37.2296 239.731 37.2296 239.604 37.1034 239.478Z" fill="white"/>
<path d="M37.2296 239.731L37.7344 239.478C37.7344 239.604 37.7344 239.731 37.8606 239.731L37.3558 239.983C37.3558 239.983 37.2296 239.857 37.2296 239.731Z" fill="white"/>
<path d="M37.3558 240.11L37.8606 239.857C37.8606 239.983 37.8606 239.983 37.8606 240.11L37.3558 240.362C37.3558 240.236 37.3558 240.11 37.3558 240.11Z" fill="white"/>
<path d="M37.3558 240.362L37.8606 240.11C37.8606 240.236 37.8606 240.362 37.8606 240.362L37.3558 240.615C37.3558 240.489 37.3558 240.489 37.3558 240.362Z" fill="white"/>
<path d="M37.3558 240.615L37.8606 240.362C37.8606 240.615 37.7344 240.741 37.6082 240.868L37.1034 241.121C37.1034 240.994 37.2296 240.868 37.3558 240.615Z" fill="white"/>
<path d="M36.22 238.34C36.851 238.72 37.3558 239.604 37.3558 240.362C37.3558 241.121 36.851 241.373 36.22 240.994C35.5889 240.615 35.0841 239.731 35.0841 238.972C35.0841 238.34 35.5889 237.961 36.22 238.34Z" fill="#252529"/>
<path d="M35.3365 238.974L35.5889 238.847C35.7151 238.721 35.9675 238.721 36.0938 238.847L35.8413 238.974C35.7151 238.847 35.4627 238.847 35.3365 238.974Z" fill="white"/>
<path d="M35.3365 238.974L35.5889 238.847C35.7151 238.847 35.7151 238.847 35.8413 238.847L35.5889 238.974C35.4627 238.847 35.4627 238.847 35.3365 238.974Z" fill="white"/>
<path d="M35.5889 238.846L35.8413 238.719H35.9675L35.7151 238.846H35.5889Z" fill="white"/>
<path d="M35.7151 238.972L35.9675 238.846C35.9675 238.846 36.0938 238.846 36.0938 238.972L35.8413 239.099C35.8413 238.972 35.8413 238.972 35.7151 238.972Z" fill="white"/>
<path d="M36.7259 240.615L36.4735 240.742C36.5997 240.615 36.7259 240.489 36.7259 240.236C36.7259 239.731 36.3473 239.225 35.9687 238.972L36.2211 238.846C36.5997 239.099 36.9783 239.731 36.9783 240.11C36.9783 240.362 36.8521 240.489 36.7259 240.615Z" fill="white"/>
<path d="M35.8413 238.972L36.22 238.846L35.8413 238.972Z" fill="white"/>
<path d="M35.8413 238.972L36.0938 238.846L36.22 238.972L35.9675 239.099C35.9675 239.099 35.9675 238.972 35.8413 238.972Z" fill="white"/>
<path d="M36.0938 239.099L36.3462 238.972L36.4724 239.099L36.22 239.225L36.0938 239.099Z" fill="white"/>
<path d="M36.22 239.225L36.4724 239.099C36.5986 239.225 36.7248 239.351 36.7248 239.604L36.4724 239.73C36.4724 239.604 36.3462 239.351 36.22 239.225Z" fill="white"/>
<path d="M36.4724 239.731L36.7248 239.604C36.7248 239.604 36.7248 239.731 36.851 239.731L36.5986 239.857C36.5986 239.857 36.5986 239.731 36.4724 239.731Z" fill="white"/>
<path d="M36.5986 239.857L36.851 239.73C36.851 239.857 36.851 239.857 36.851 239.983L36.5986 240.11C36.5986 240.11 36.5986 239.983 36.5986 239.857Z" fill="white"/>
<path d="M36.5986 240.11L36.851 239.983V240.11L36.5986 240.236C36.5986 240.236 36.5986 240.236 36.5986 240.11Z" fill="white"/>
<path d="M36.5986 240.236L36.851 240.11C36.851 240.236 36.851 240.236 36.851 240.236L36.5986 240.362C36.5986 240.362 36.5986 240.362 36.5986 240.236Z" fill="white"/>
<path d="M36.5986 240.489L36.851 240.363C36.851 240.489 36.851 240.489 36.5986 240.489L36.3462 240.742C36.4724 240.742 36.5986 240.615 36.5986 240.489Z" fill="white"/>
<path d="M35.8413 238.973C36.22 239.226 36.5986 239.857 36.5986 240.237C36.5986 240.742 36.22 240.868 35.8413 240.616C35.4627 240.363 35.0841 239.731 35.0841 239.352C35.0841 238.973 35.4627 238.72 35.8413 238.973Z" fill="#252529"/>
<path d="M55.2764 250.094L55.7813 249.841C56.0337 249.715 56.2861 249.715 56.6647 249.968L56.1599 250.22C55.7813 250.094 55.4026 249.968 55.2764 250.094Z" fill="white"/>
<path d="M55.2764 250.093L55.7813 249.84C55.9075 249.84 56.0337 249.714 56.1599 249.714L55.655 249.967C55.4026 250.093 55.2764 250.093 55.2764 250.093Z" fill="white"/>
<path d="M55.5289 250.093L56.0337 249.841C56.1599 249.841 56.1599 249.841 56.2861 249.841L55.7813 250.093C55.7813 250.093 55.6551 250.093 55.5289 250.093Z" fill="white"/>
<path d="M55.7813 250.093L56.2861 249.841C56.4123 249.841 56.4123 249.841 56.5385 249.967L56.0337 250.22C56.0337 250.22 55.9075 250.093 55.7813 250.093Z" fill="white"/>
<path d="M57.2957 252.747L56.7909 253C57.0433 252.873 57.1695 252.621 57.1695 252.242C57.1695 251.483 56.6647 250.599 56.0337 250.22L56.5385 249.967C57.1695 250.346 57.6743 251.231 57.6743 251.989C57.6743 252.368 57.5481 252.621 57.2957 252.747Z" fill="white"/>
<path d="M56.0337 250.22L56.5385 249.967L56.0337 250.22Z" fill="white"/>
<path d="M56.0337 250.22L56.5385 249.967C56.6647 249.967 56.6647 250.093 56.7909 250.093L56.2861 250.346C56.2861 250.346 56.1599 250.22 56.0337 250.22Z" fill="white"/>
<path d="M56.2861 250.346L56.7909 250.093C56.9171 250.22 56.9171 250.22 57.0433 250.346L56.5385 250.599C56.5385 250.599 56.4123 250.472 56.2861 250.346Z" fill="white"/>
<path d="M56.5385 250.599L57.0433 250.346C57.1695 250.599 57.4219 250.851 57.5481 251.104L57.0433 251.357C56.9171 251.104 56.7909 250.851 56.5385 250.599Z" fill="white"/>
<path d="M57.0433 251.357L57.5481 251.104C57.5481 251.231 57.6743 251.357 57.6743 251.357L57.1695 251.61C57.0433 251.483 57.0433 251.483 57.0433 251.357Z" fill="white"/>
<path d="M57.1695 251.61L57.6743 251.357C57.6743 251.483 57.6743 251.61 57.8005 251.61L57.2957 251.862C57.1695 251.862 57.1695 251.736 57.1695 251.61Z" fill="white"/>
<path d="M57.1695 251.989L57.6743 251.736C57.6743 251.862 57.6743 251.862 57.6743 251.989L57.1695 252.242C57.1695 252.115 57.1695 251.989 57.1695 251.989Z" fill="white"/>
<path d="M57.1695 252.242L57.6743 251.989C57.6743 252.115 57.6743 252.242 57.6743 252.242L57.1695 252.494C57.1695 252.368 57.1695 252.368 57.1695 252.242Z" fill="white"/>
<path d="M57.1695 252.494L57.6743 252.242C57.6743 252.494 57.5481 252.621 57.4219 252.747L56.9171 253C57.0433 252.874 57.1695 252.747 57.1695 252.494Z" fill="white"/>
<path d="M56.0337 250.22C56.6647 250.599 57.1695 251.483 57.1695 252.242C57.1695 253 56.6647 253.253 56.0337 252.873C55.4026 252.494 54.8978 251.61 54.8978 250.851C54.8978 250.093 55.4026 249.84 56.0337 250.22Z" fill="#252529"/>
<path d="M55.2764 250.853L55.5288 250.726C55.655 250.6 55.9075 250.6 56.0337 250.726L55.7813 250.853C55.5288 250.726 55.4026 250.726 55.2764 250.853Z" fill="white"/>
<path d="M55.2764 250.853L55.5288 250.726C55.655 250.726 55.655 250.726 55.7812 250.726L55.5288 250.853C55.4026 250.726 55.2764 250.726 55.2764 250.853Z" fill="white"/>
<path d="M55.5289 250.725L55.7813 250.599H55.9075L55.655 250.725C55.5288 250.725 55.5289 250.725 55.5289 250.725Z" fill="white"/>
<path d="M55.655 250.851L55.9075 250.725C55.9075 250.725 56.0337 250.725 56.0337 250.851L55.7813 250.978C55.7813 250.851 55.655 250.851 55.655 250.851Z" fill="white"/>
<path d="M56.6658 252.494L56.4134 252.621C56.5396 252.494 56.6658 252.368 56.6658 252.115C56.6658 251.61 56.2872 251.104 55.9086 250.851L56.161 250.725C56.5396 250.978 56.9182 251.61 56.9182 251.989C56.792 252.242 56.792 252.368 56.6658 252.494Z" fill="white"/>
<path d="M55.7813 250.851L56.0337 250.725L55.7813 250.851Z" fill="white"/>
<path d="M55.7813 250.851L56.0337 250.725L56.1599 250.851L55.9075 250.978L55.7813 250.851Z" fill="white"/>
<path d="M55.9086 250.979L56.161 250.853L56.2872 250.979L56.0348 251.106C56.0348 251.106 56.0348 250.979 55.9086 250.979Z" fill="white"/>
<path d="M56.1599 251.104L56.4123 250.978C56.5385 251.104 56.6647 251.231 56.6647 251.483L56.4123 251.61C56.2861 251.483 56.1599 251.231 56.1599 251.104Z" fill="white"/>
<path d="M56.4123 251.61L56.6647 251.483C56.6647 251.483 56.6647 251.61 56.7909 251.61L56.5385 251.736C56.4123 251.736 56.4123 251.61 56.4123 251.61Z" fill="white"/>
<path d="M56.4123 251.736L56.6647 251.61C56.6647 251.736 56.6647 251.736 56.6647 251.862L56.4123 251.989C56.5385 251.862 56.5385 251.862 56.4123 251.736Z" fill="white"/>
<path d="M56.5385 251.989L56.7909 251.863V251.989L56.5385 252.115V251.989Z" fill="white"/>
<path d="M56.5385 252.115L56.7909 251.989C56.7909 252.115 56.7909 252.115 56.7909 252.115L56.5385 252.242C56.5385 252.242 56.5385 252.242 56.5385 252.115Z" fill="white"/>
<path d="M56.5385 252.368L56.7909 252.242C56.7909 252.368 56.6647 252.368 56.5385 252.368L56.2861 252.621C56.4123 252.621 56.4123 252.494 56.5385 252.368Z" fill="white"/>
<path d="M55.7813 250.852C56.1599 251.104 56.5385 251.736 56.5385 252.115C56.5385 252.621 56.1599 252.747 55.7813 252.495C55.4026 252.242 55.024 251.61 55.024 251.231C55.024 250.852 55.4026 250.599 55.7813 250.852Z" fill="#252529"/>
<path d="M55.5289 264.5L56.0337 264.247C56.2861 264.121 56.5385 264.121 56.9171 264.374L56.4123 264.626C56.0337 264.374 55.6551 264.374 55.5289 264.5Z" fill="white"/>
<path d="M55.5289 264.5L56.0337 264.247C56.1599 264.247 56.2861 264.121 56.4123 264.121L55.9075 264.373C55.6551 264.373 55.5289 264.373 55.5289 264.5Z" fill="white"/>
<path d="M55.7813 264.373L56.2861 264.121C56.4123 264.121 56.4123 264.121 56.5385 264.121L56.0337 264.373C56.0337 264.373 55.9075 264.373 55.7813 264.373Z" fill="white"/>
<path d="M56.0337 264.373L56.5385 264.121C56.6647 264.121 56.6647 264.121 56.7909 264.247L56.2861 264.5C56.2861 264.5 56.1599 264.5 56.0337 264.373Z" fill="white"/>
<path d="M57.5481 267.027L57.0433 267.28C57.2957 267.154 57.4219 266.901 57.4219 266.522C57.4219 265.764 56.9171 264.879 56.2861 264.5L56.7909 264.247C57.4219 264.626 57.9267 265.511 57.9267 266.269C57.9267 266.648 57.8005 266.901 57.5481 267.027Z" fill="white"/>
<path d="M56.2861 264.5L56.7909 264.247L56.2861 264.5Z" fill="white"/>
<path d="M56.2861 264.5L56.7909 264.247C56.9171 264.247 56.9171 264.373 57.0433 264.373L56.5385 264.626C56.5385 264.626 56.4123 264.626 56.2861 264.5Z" fill="white"/>
<path d="M56.5385 264.753L57.0433 264.5C57.1695 264.626 57.1695 264.626 57.2957 264.753L56.7909 265.005C56.7909 264.879 56.6647 264.753 56.5385 264.753Z" fill="white"/>
<path d="M56.7909 265.005L57.2957 264.752C57.4219 265.005 57.6743 265.258 57.8005 265.511L57.2957 265.763C57.1695 265.384 57.0433 265.132 56.7909 265.005Z" fill="white"/>
<path d="M57.2957 265.637L57.8005 265.385C57.8005 265.511 57.9267 265.637 57.9267 265.637L57.4219 265.89C57.2957 265.89 57.2957 265.764 57.2957 265.637Z" fill="white"/>
<path d="M57.4219 265.89L57.9267 265.637C57.9267 265.764 57.9267 265.89 58.0529 265.89L57.5481 266.143C57.4219 266.143 57.4219 266.016 57.4219 265.89Z" fill="white"/>
<path d="M57.4219 266.269L57.9267 266.016C57.9267 266.143 57.9267 266.143 57.9267 266.269L57.4219 266.522C57.4219 266.395 57.4219 266.395 57.4219 266.269Z" fill="white"/>
<path d="M57.4219 266.522L57.9267 266.269C57.9267 266.395 57.9267 266.522 57.9267 266.522L57.4219 266.775C57.4219 266.775 57.4219 266.648 57.4219 266.522Z" fill="white"/>
<path d="M57.4219 266.774L57.9267 266.522C57.9267 266.774 57.8005 266.901 57.6743 267.027L57.1695 267.28C57.2957 267.154 57.4219 267.027 57.4219 266.774Z" fill="white"/>
<path d="M56.2861 264.5C56.9171 264.88 57.4219 265.764 57.4219 266.522C57.4219 267.281 56.9171 267.533 56.2861 267.154C55.655 266.775 55.1502 265.89 55.1502 265.132C55.1502 264.5 55.655 264.121 56.2861 264.5Z" fill="#252529"/>
<path d="M55.5289 265.133L55.7813 265.007C55.9075 264.88 56.1599 264.88 56.2861 265.007L56.0337 265.133C55.7813 265.007 55.6551 265.007 55.5289 265.133Z" fill="white"/>
<path d="M55.5289 265.133L55.7813 265.007C55.9075 265.007 55.9075 265.007 56.0337 265.007L55.7813 265.133C55.6551 265.007 55.5289 265.007 55.5289 265.133Z" fill="white"/>
<path d="M55.6562 265.005L55.9086 264.879H56.0348L55.7824 265.005C55.7824 265.132 55.7824 265.005 55.6562 265.005Z" fill="white"/>
<path d="M55.9075 265.132L56.1599 265.005C56.1599 265.005 56.2861 265.005 56.2861 265.132L56.0337 265.258C55.9075 265.132 55.9075 265.132 55.9075 265.132Z" fill="white"/>
<path d="M56.7909 266.775L56.5385 266.901C56.6647 266.775 56.7909 266.648 56.7909 266.395C56.7909 265.89 56.4123 265.384 56.0337 265.132L56.2861 265.005C56.6647 265.258 57.0433 265.89 57.0433 266.269C57.0433 266.522 57.0433 266.648 56.7909 266.775Z" fill="white"/>
<path d="M56.0337 265.132L56.2861 265.005L56.0337 265.132Z" fill="white"/>
<path d="M56.0337 265.132L56.2861 265.005L56.4123 265.132L56.1599 265.258C56.1599 265.258 56.0337 265.258 56.0337 265.132Z" fill="white"/>
<path d="M56.161 265.259L56.4134 265.133L56.5396 265.259L56.2872 265.386C56.2872 265.386 56.2872 265.386 56.161 265.259Z" fill="white"/>
<path d="M56.2861 265.384L56.5385 265.258C56.6647 265.384 56.7909 265.511 56.7909 265.764L56.5385 265.89C56.5385 265.764 56.4123 265.511 56.2861 265.384Z" fill="white"/>
<path d="M56.6647 265.89L56.9171 265.764C56.9171 265.764 56.9171 265.89 57.0433 265.89L56.7909 266.016C56.6647 266.016 56.6647 266.016 56.6647 265.89Z" fill="white"/>
<path d="M56.6647 266.143L56.9171 266.016C56.9171 266.143 56.9171 266.143 56.9171 266.269L56.6647 266.396C56.7909 266.269 56.6647 266.143 56.6647 266.143Z" fill="white"/>
<path d="M56.7909 266.269L57.0433 266.143V266.269L56.7909 266.395C56.7909 266.395 56.7909 266.395 56.7909 266.269Z" fill="white"/>
<path d="M56.7909 266.522L57.0433 266.396C57.0433 266.522 57.0433 266.522 57.0433 266.522L56.7909 266.648V266.522Z" fill="white"/>
<path d="M56.7909 266.648L57.0433 266.522C57.0433 266.648 56.9171 266.774 56.7909 266.648L56.5385 266.901C56.6647 266.901 56.6647 266.774 56.7909 266.648Z" fill="white"/>
<path d="M56.0337 265.132C56.4123 265.385 56.7909 266.017 56.7909 266.396C56.7909 266.901 56.4123 267.028 56.0337 266.775C55.6551 266.522 55.2764 265.89 55.2764 265.511C55.2764 265.132 55.6551 264.879 56.0337 265.132Z" fill="#252529"/>
<path d="M35.4627 253.127L35.9676 252.874C36.22 252.748 36.4724 252.748 36.851 253.001L36.3462 253.253C35.9676 253.001 35.5889 253.001 35.4627 253.127Z" fill="white"/>
<path d="M35.4627 253.126L35.9676 252.873C36.0938 252.873 36.22 252.747 36.3462 252.747L35.8413 253C35.5889 253.126 35.4627 253.126 35.4627 253.126Z" fill="white"/>
<path d="M35.7151 253.126L36.22 252.874C36.3462 252.874 36.3462 252.874 36.4724 252.874L35.9675 253.126C35.9675 253.126 35.8413 253.126 35.7151 253.126Z" fill="white"/>
<path d="M35.9675 253.126L36.4724 252.874C36.5986 252.874 36.5986 252.874 36.7248 253L36.22 253.253C36.22 253.253 36.0938 253.126 35.9675 253.126Z" fill="white"/>
<path d="M37.482 255.78L36.9772 256.033C37.2296 255.906 37.3558 255.654 37.3558 255.275C37.3558 254.516 36.851 253.632 36.22 253.253L36.7248 253C37.3558 253.379 37.8606 254.264 37.8606 255.022C37.8606 255.401 37.7344 255.654 37.482 255.78Z" fill="white"/>
<path d="M36.22 253.253L36.7248 253L36.22 253.253Z" fill="white"/>
<path d="M36.22 253.253L36.7248 253C36.851 253 36.851 253.126 36.9772 253.126L36.4724 253.379C36.4724 253.379 36.3462 253.253 36.22 253.253Z" fill="white"/>
<path d="M36.4724 253.379L36.9772 253.126C37.1034 253.253 37.1034 253.253 37.2296 253.379L36.7248 253.632C36.7248 253.632 36.5986 253.505 36.4724 253.379Z" fill="white"/>
<path d="M36.7248 253.632L37.2296 253.379C37.3558 253.632 37.6082 253.884 37.7344 254.137L37.2296 254.39C37.1034 254.137 36.9772 253.884 36.7248 253.632Z" fill="white"/>
<path d="M37.2296 254.39L37.7344 254.137C37.7344 254.264 37.8606 254.39 37.8606 254.39L37.3558 254.643C37.2296 254.516 37.2296 254.516 37.2296 254.39Z" fill="white"/>
<path d="M37.3558 254.643L37.8606 254.39C37.8606 254.516 37.8606 254.643 37.9868 254.643L37.482 254.895C37.3558 254.895 37.3558 254.769 37.3558 254.643Z" fill="white"/>
<path d="M37.3558 255.022L37.8606 254.769C37.8606 254.895 37.8606 254.895 37.8606 255.022L37.3558 255.275C37.3558 255.148 37.3558 255.022 37.3558 255.022Z" fill="white"/>
<path d="M37.3558 255.274L37.8606 255.022C37.8606 255.148 37.8606 255.274 37.8606 255.274L37.3558 255.527C37.3558 255.401 37.3558 255.401 37.3558 255.274Z" fill="white"/>
<path d="M37.3558 255.527L37.8606 255.274C37.8606 255.527 37.7344 255.654 37.6082 255.78L37.1034 256.033C37.2296 255.906 37.3558 255.78 37.3558 255.527Z" fill="white"/>
<path d="M36.22 253.253C36.851 253.632 37.3558 254.516 37.3558 255.275C37.3558 256.033 36.851 256.286 36.22 255.906C35.5889 255.527 35.0841 254.643 35.0841 253.884C35.0841 253.126 35.5889 252.873 36.22 253.253Z" fill="#252529"/>
<path d="M35.4627 253.886L35.7151 253.759C35.8413 253.633 36.0937 253.633 36.22 253.759L35.9675 253.886C35.7151 253.759 35.5889 253.759 35.4627 253.886Z" fill="white"/>
<path d="M35.4627 253.886L35.7151 253.759C35.8413 253.759 35.8413 253.759 35.9675 253.759L35.7151 253.886C35.5889 253.759 35.4627 253.759 35.4627 253.886Z" fill="white"/>
<path d="M35.5901 253.758L35.8425 253.632H35.9687L35.7163 253.758C35.7163 253.758 35.7163 253.758 35.5901 253.758Z" fill="white"/>
<path d="M35.8413 253.758L36.0938 253.632C36.0938 253.632 36.22 253.632 36.22 253.758L35.9675 253.884C35.8413 253.884 35.8413 253.884 35.8413 253.758Z" fill="white"/>
<path d="M36.7248 255.527L36.4724 255.654C36.5986 255.527 36.7248 255.401 36.7248 255.148C36.7248 254.643 36.3462 254.137 35.9675 253.884L36.22 253.758C36.5986 254.011 36.9772 254.643 36.9772 255.022C36.9772 255.275 36.9772 255.401 36.7248 255.527Z" fill="white"/>
<path d="M35.9675 253.884L36.22 253.758L35.9675 253.884Z" fill="white"/>
<path d="M35.9675 253.884L36.22 253.758L36.3462 253.884L36.0938 254.011L35.9675 253.884Z" fill="white"/>
<path d="M36.0949 254.012L36.3473 253.886L36.4735 254.012L36.2211 254.138C36.2211 254.138 36.2211 254.012 36.0949 254.012Z" fill="white"/>
<path d="M36.22 254.137L36.5986 254.011C36.7248 254.137 36.851 254.263 36.851 254.516L36.5986 254.643C36.4724 254.516 36.3462 254.263 36.22 254.137Z" fill="white"/>
<path d="M36.5986 254.643L36.851 254.516C36.851 254.516 36.851 254.643 36.9772 254.643L36.7248 254.769C36.5986 254.769 36.5986 254.643 36.5986 254.643Z" fill="white"/>
<path d="M36.5986 254.769L36.851 254.643C36.851 254.769 36.851 254.769 36.851 254.895L36.5986 255.022C36.7248 254.895 36.5986 254.895 36.5986 254.769Z" fill="white"/>
<path d="M36.7248 255.022L36.9772 254.895V255.022L36.7248 255.148V255.022Z" fill="white"/>
<path d="M36.7248 255.148L36.9772 255.022C36.9772 255.148 36.9772 255.148 36.9772 255.148L36.7248 255.274C36.7248 255.274 36.7248 255.274 36.7248 255.148Z" fill="white"/>
<path d="M36.7248 255.401L36.9772 255.274C36.9772 255.401 36.851 255.401 36.7248 255.401L36.4724 255.654C36.5986 255.654 36.5986 255.527 36.7248 255.401Z" fill="white"/>
<path d="M35.9676 253.885C36.3462 254.137 36.7248 254.769 36.7248 255.148C36.7248 255.654 36.3462 255.78 35.9676 255.528C35.5889 255.275 35.2103 254.643 35.2103 254.264C35.2103 253.885 35.5889 253.632 35.9676 253.885Z" fill="#252529"/>
<path d="M16.0276 230.253L23.2212 248.83C23.726 249.967 22.3377 251.104 21.3281 250.472L6.94111 242.132C6.3101 241.753 6.05769 240.868 6.5625 240.236L13.756 230C14.2608 229.115 15.649 229.242 16.0276 230.253Z" fill="#FFD100"/>
<path d="M21.9591 251.104C21.7067 251.104 21.3281 250.978 21.0757 250.852L6.6887 242.511C6.3101 242.258 5.93149 241.879 5.93149 241.374C5.80529 240.868 5.93149 240.363 6.18389 239.984L13.3774 229.747C13.756 229.242 14.387 228.989 15.018 228.989C15.649 229.115 16.1538 229.495 16.4062 230.126L23.5998 248.703C23.8522 249.335 23.726 250.093 23.0949 250.599C22.7163 250.852 22.3377 251.104 21.9591 251.104ZM14.7656 229.747C14.5132 229.747 14.1346 229.874 14.0084 230.126L6.8149 240.363C6.6887 240.615 6.5625 240.868 6.6887 241.121C6.6887 241.374 6.94111 241.626 7.19351 241.753L21.4543 250.22C21.8329 250.473 22.3377 250.346 22.5901 250.093C22.8425 249.841 23.095 249.462 22.8425 248.956L15.649 230.379C15.5228 230 15.2704 229.747 14.7656 229.747Z" fill="#1A191D"/>
<path d="M16.1538 235.434L15.9014 242.89L14.1346 241.879L13.8822 234.17L16.1538 235.434ZM16.1538 245.418C16.1538 245.67 16.0276 245.67 15.9014 245.544L14.5132 244.786C14.387 244.659 14.2608 244.533 14.2608 244.28V242.637C14.2608 242.385 14.387 242.385 14.5132 242.385L15.9014 243.143C16.1538 243.269 16.1538 243.396 16.1538 243.648V245.418Z" fill="#252529"/>
<path opacity="0.2" d="M197.001 264.374C208.864 271.198 208.99 282.319 197.127 289.269C185.391 296.093 166.082 296.093 154.219 289.269C142.356 282.445 142.23 271.324 154.093 264.374C165.956 257.423 185.138 257.423 197.001 264.374Z" fill="#9193A3"/>
<path d="M179.712 278.275C180.595 282.066 180.974 289.775 176.304 289.648C167.849 289.522 170.246 284.972 164.694 283.961C152.452 281.687 150.433 272.967 152.957 270.566C155.607 268.165 159.267 270.439 162.548 271.956C164.567 272.841 172.392 275.747 172.392 275.747L179.712 278.275Z" fill="#555656"/>
<path d="M179.964 277.137C180.847 280.929 181.226 288.637 176.556 288.511C168.101 288.385 170.499 283.835 164.946 282.824C152.704 280.549 150.685 271.83 153.209 269.429C155.859 267.028 159.519 269.302 162.8 270.819C164.82 271.703 172.644 274.61 172.644 274.61L179.964 277.137Z" fill="#3A3E3F"/>
<path d="M196.875 272.588C197.758 276.379 198.137 284.088 193.468 283.961C185.012 283.835 187.41 279.286 181.857 278.275C169.615 276 167.596 267.28 170.12 264.879C172.77 262.478 176.43 264.753 179.712 266.269C181.731 267.154 189.555 270.06 189.555 270.06L196.875 272.588Z" fill="#555656"/>
<path d="M197.127 271.451C198.011 275.242 198.389 282.951 193.72 282.824C185.264 282.698 187.662 278.148 182.109 277.137C169.868 274.863 167.849 266.143 170.373 263.742C173.023 261.341 176.683 263.615 179.964 265.132C181.983 266.017 189.808 268.923 189.808 268.923L197.127 271.451Z" fill="#3A3E3F"/>
<path d="M169.111 43.978C165.072 45.2418 163.431 49.033 163.431 51.3077C163.431 53.5824 163.81 55.8571 163.558 57.5C163.305 59.1429 162.296 61.9231 162.8 64.4506C163.305 66.978 163.558 74.8132 168.984 74.4341C173.528 74.1813 170.246 83.0275 170.246 83.0275C170.246 83.0275 174.159 87.3242 178.828 87.4505C183.498 87.4505 187.915 83.9121 187.915 83.9121C187.915 83.9121 183.876 74.8132 185.012 69.5055C186.148 64.1978 185.138 48.022 185.138 48.022L169.111 43.978Z" fill="#FFCBB6"/>
<path d="M184.76 69.3791C184.886 68.6208 185.012 67.7362 185.138 66.7252L180.09 66.2197C180.09 66.2197 178.828 73.0439 171.004 75.8241C171.761 78.3516 169.994 82.901 169.994 82.901C169.994 82.901 170.751 83.6593 171.887 84.5439C174.663 84.6703 185.264 84.923 185.517 84.7966C185.643 84.6703 186.274 83.912 187.157 82.6483C186.274 79.9945 183.876 73.5494 184.76 69.3791Z" fill="#EFB8A5"/>
<path d="M161.16 46.3792C160.403 50.6759 162.422 52.4451 166.208 54.5934C169.363 56.3627 171.382 55.8572 171.635 58.3846C171.761 59.3956 171.382 61.6704 171.761 62.0495C172.266 62.555 173.528 61.9231 173.528 61.9231L174.032 56.1099C174.032 56.1099 175.547 54.3407 176.935 56.2363C178.323 58.1319 174.537 61.1649 176.052 63.6923C177.44 66.3462 180.343 68.3682 181.352 68.8737C184.129 70.2638 183.75 71.6539 185.138 70.2638C186.526 68.8737 194.856 53.8352 189.934 45.7473C184.76 37.4066 178.071 37.533 173.275 37.9121C169.742 38.2912 161.917 41.4506 161.16 46.3792Z" fill="#4C3111"/>
<path d="M206.845 167.571C206.845 167.571 206.214 177.808 204.069 178.187C201.923 178.692 201.923 175.786 201.923 175.786L202.933 167.319L206.845 167.571Z" fill="#FFBFA2"/>
<path d="M194.477 76.4561C194.477 76.4561 200.913 75.5715 204.195 80.3737C208.99 87.7033 210.505 102.742 209.874 110.324C209.117 118.665 205.457 144.951 206.466 152.154C207.476 159.357 208.612 167.066 206.845 168.456C205.204 169.846 200.535 168.835 200.535 168.835L198.894 146.72L200.787 93.2638L194.477 76.4561Z" fill="#C2C3D0"/>
<path d="M201.166 145.835C201.166 145.835 208.107 154.681 204.826 175.154C201.544 195.626 199.399 207 200.913 217.489C202.428 227.978 197.127 252.242 198.011 261.846C198.894 271.451 196.749 273.725 193.72 273.978C190.691 274.231 182.236 274.989 182.236 270.945C182.236 266.901 181.731 247.566 180.974 242.005C180.09 236.445 179.207 225.451 179.964 213.698C180.469 205.357 179.838 197.775 180.469 187.918C181.226 176.165 184.002 158.978 182.614 150.258C180.216 136.104 201.166 145.835 201.166 145.835Z" fill="#1A191D"/>
<path d="M191.575 146.341C191.575 146.341 195.865 152.786 194.099 170.857C192.963 182.357 184.886 197.901 185.138 206.874C185.517 215.846 187.031 228.61 184.633 240.995C182.236 253.253 183.119 268.165 180.721 279.918C174.032 281.055 167.47 278.148 167.218 276.885C166.46 274.231 166.46 258.308 163.936 246.176C161.412 234.044 159.141 205.863 160.529 189.813C161.412 180.335 159.141 170.857 161.034 150.258C162.296 134.588 191.575 146.341 191.575 146.341Z" fill="#252529"/>
<path d="M197.254 76.7088C193.468 75.5715 188.672 77.5934 185.517 78.8572C180.721 80.8792 177.44 81.3847 173.401 81.511C167.47 81.6374 153.84 82.6484 150.559 89.2198C146.394 97.1814 157.374 119.676 159.267 126.879C161.16 134.082 160.15 150.385 160.024 153.039C160.024 155.692 179.333 155.566 191.196 153.923C203.059 152.28 204.7 151.269 205.331 140.528C205.583 136.484 205.583 126.879 207.097 113.357C208.612 100.846 205.583 79.2363 197.254 76.7088Z" fill="#FFD100"/>
<path d="M119.008 92.1264C119.008 92.1264 117.242 90.2308 116.863 87.8297C116.484 85.4286 117.62 77.4671 114.718 77.4671C112.698 77.3407 114.339 82.2693 113.203 82.2693C111.058 82.522 110.427 69.6319 107.903 69.8847C105.883 70.1374 108.786 76.4561 107.903 76.5825C107.019 76.7088 106.01 77.4671 106.01 78.2253C106.01 78.9836 105.379 78.7308 104.748 79.3627C104.117 79.9945 104.874 80.6264 104.495 80.8792C104.117 81.1319 103.486 81.6374 103.612 82.6484C103.864 83.7858 105.631 89.2198 108.281 90.989C112.446 93.6429 112.194 95.9176 112.194 95.9176L119.008 92.1264Z" fill="#FFCBB6"/>
<path d="M157.879 84.6704C166.46 85.9341 165.829 101.984 160.15 115.379C155.228 127.258 148.918 132.06 143.365 132.945C130.114 135.22 109.796 93.5165 109.796 93.5165L118.251 87.8297L140.21 114.368C140.21 114.495 147.53 83.1539 157.879 84.6704Z" fill="#E0E2EA"/>
<path d="M169.111 38.9231C169.111 38.9231 163.684 37.4067 162.169 38.9231C160.529 40.6924 158.383 47.5165 169.742 57.2473C182.614 68.1154 192.71 65.3352 193.846 62.555C194.982 59.7748 191.827 53.4561 191.827 53.4561L169.111 38.9231Z" fill="#FFD100"/>
<path d="M166.208 39.6813C161.412 44.6099 167.849 52.5714 175.925 57.8791C180.343 60.7857 188.419 66.7253 193.341 59.9011C195.234 57.3736 195.361 41.4505 182.236 37.4066C177.692 36.0165 170.373 35.511 166.208 39.6813Z" fill="#FFD100"/>
<path d="M192.837 60.0275C192.837 55.4781 188.672 47.5165 181.478 43.4726C173.78 39.0495 166.965 40.3132 166.208 40.3132L165.451 40.8187C162.422 45.7473 168.48 52.9506 176.052 58.0055C180.343 60.9121 188.041 63.3132 192.837 60.0275Z" fill="#FFB200"/>
</g>
<defs>
<clipPath id="clip0">
<rect width="210" height="299" fill="white"/>
</clipPath>
</defs>
</svg>
